%YAML 1.1
%TAG !u! tag:unity3d.com,2011:
--- !u!1045 &1
EditorBuildSettings:
  m_ObjectHideFlags: 0
  serializedVersion: 2
  m_Scenes:
  - enabled: 1
    path: Assets/Scenes/MainMenu.unity
    guid: 95432eb6d2822c74baef891871f4c97b
  - enabled: 1
    path: Assets/Scenes/GameplayScene.unity
    guid: c55871ad816e95c4a830e34c750ae8b1
  - enabled: 1
    path: Assets/Scenes/MapEditor.unity
    guid: 7659657a92803954ab9b13c2aaefdaa5
  - enabled: 1
    path: Assets/Scenes/VictoryScene.unity
    guid: 8e38f9c52fd4c7b459d1904527957abb
  m_configObjects: {}
